…
```r
argentina_data_original
```

```
## # A tibble: 60 × 12
##    Site  L.acuta H.similis U.urug…¹ N.suc…² MedSand FineS…³   Mud Organ…⁴ Season
##    <chr>   <dbl>     <dbl>    <dbl>   <dbl>   <dbl>   <dbl> <dbl>   <dbl> <chr> 
##  1 A1         22         5        0       0    2.46    72.2  25.4    6.59 Fall  
##  2 A2         40         3        0       0    1.23    70    28.8    6.6  Fall  
##  3 A3         54        11        0       0    0.56    67.4  32      6.48 Fall  
##  4 A4         61         9        0       0    0.68    73.5  25.9    5.92 Fall  
##  5 A5         42         2        0       0    0.09    77.4  22.5    5.94 Fall  
##  6 A6          0        12        0       0    1.72    77.3  21.0    5.37 Fall  
##  7 A7         72         4        0       0    1.62    74.0  24.4    6.25 Fall  
##  8 A8         21         3        0       0    0.12    71.8  28.1    5.38 Fall  
##  9 A9         56        16        0       0    0.53    83.8  25.7    6.07 Fall  
## 10 A10        39        14        0       0    0.38    68.2  31.4    6.88 Fall  
## # … with 50 more rows, 2 more variables: Transect <dbl>,
## #   TransectLocation <chr>, and abbreviated variable names ¹​U.uruguayensis,
## #   ²​N.succinea, ³​FineSand, ⁴​OrganMat
```
…
```r
argentina_data <- argentina_data_original %>% 
  clean_names() %>% 
  pivot_longer(cols = c(l_acuta, h_similis, u_uruguayensis, n_succinea), 
               names_to = "species",
               values_to = "counts")


argentina_data
```

```
## # A tibble: 240 × 10
##    site  med_sand fine_sand   mud organ_…¹ season trans…² trans…³ species counts
##    <chr>    <dbl>     <dbl> <dbl>    <dbl> <chr>    <dbl> <chr>   <chr>    <dbl>
##  1 A1        2.46      72.2  25.4     6.59 Fall         1 Easter… l_acuta     22
##  2 A1        2.46      72.2  25.4     6.59 Fall         1 Easter… h_simi…      5
##  3 A1        2.46      72.2  25.4     6.59 Fall         1 Easter… u_urug…      0
##  4 A1        2.46      72.2  25.4     6.59 Fall         1 Easter… n_succ…      0
##  5 A2        1.23      70    28.8     6.6  Fall         1 Easter… l_acuta     40
##  6 A2        1.23      70    28.8     6.6  Fall         1 Easter… h_simi…      3
##  7 A2        1.23      70    28.8     6.6  Fall         1 Easter… u_urug…      0
##  8 A2        1.23      70    28.8     6.6  Fall         1 Easter… n_succ…      0
##  9 A3        0.56      67.4  32       6.48 Fall         1 Easter… l_acuta     54
## 10 A3        0.56      67.4  32       6.48 Fall         1 Easter… h_simi…     11
## # … with 230 more rows, and abbreviated variable names ¹​organ_mat, ²​transect,
## #   ³​transect_location
```
…
